mysql> source solution3.sql;
--------------
SELECT EMPLOYEE.first_name, EMPLOYEE.last_name
FROM EMPLOYEE
WHERE EMPLOYEE.department_name IN 
	(SELECT DEPARTMENT.department_name
	 FROM DEPARTMENT
	 WHERE country_name = 'Canada'
	)
--------------

+------------+-----------+
| first_name | last_name |
+------------+-----------+
| Nancy      | Greenberg |
+------------+-----------+
1 row in set (0.00 sec)

--------------
SELECT EMPLOYEE.first_name, EMPLOYEE.last_name
FROM EMPLOYEE
WHERE EMPLOYEE.employee_id NOT IN 
	(SELECT JOBHISTORY.employee_id
	 FROM JOBHISTORY
	 WHERE JOBHISTORY.employee_id = EMPLOYEE.employee_id
	)
--------------

+-------------+-------------+
| first_name  | last_name   |
+-------------+-------------+
| Steven      | King        |
| Alexander   | Hunold      |
| Bruce       | Ernst       |
| David       | Austin      |
| Valli       | Pataballa   |
| Diana       | Lorentz     |
| Ismael      | Sciarra     |
| Jose Manuel | Urman       |
| Luis        | Popp        |
| Alexander   | Khoo        |
| Shelli      | Baida       |
| Sigal       | Tobias      |
| Guy         | Himuro      |
| Karen       | Colmenares  |
| Matthew     | Weiss       |
| Adam        | Fripp       |
| Payam       | Kaufling    |
| Shanta      | Vollman     |
| Kevin       | Mourgos     |
| Julia       | Nayer       |
| Irene       | Mikkilineni |
| James       | Landry      |
| Steven      | Markle      |
| Laura       | Bissot      |
| Mozhe       | Atkinson    |
| James       | Marlow      |
| TJ          | Olson       |
| Jason       | Mallin      |
| Michael     | Rogers      |
| Ki          | Gee         |
| Hazel       | Philtanker  |
| Renske      | Ladwig      |
| Stephen     | Stiles      |
| John        | Seo         |
| Joshua      | Patel       |
| Trenna      | Rajs        |
| Curtis      | Davies      |
| Randall     | Matos       |
| Peter       | Vargas      |
| John        | Russell     |
| Karen       | Partners    |
| Alberto     | Errazuriz   |
| Gerald      | Cambrault   |
| Eleni       | Zlotkey     |
| Peter       | Tucker      |
| David       | Bernstein   |
| Peter       | Hall        |
| Christopher | Olsen       |
| Nanette     | Cambrault   |
| Oliver      | Tuvault     |
| Janette     | King        |
| Patrick     | Sully       |
| Allan       | McEwen      |
| Lindsey     | Smith       |
| Jean        | Fleaur      |
| Martha      | Sullivan    |
| Girard      | Geoni       |
| Nandita     | Sarchand    |
| Alexis      | Bull        |
| Julia       | Dellinger   |
| Anthony     | Cabrio      |
| Kelly       | Chung       |
| Jennifer    | Dilly       |
| Timothy     | Gates       |
| Randall     | Perkins     |
| Sarah       | Bell        |
| Britney     | Everett     |
| Samuel      | McCain      |
| Vance       | Jones       |
| Alana       | Walsh       |
| Kevin       | Feeney      |
| Donald      | OConnell    |
| Douglas     | Grant       |
| Pat         | Fay         |
| Susan       | Mavris      |
| Hermann     | Baer        |
| William     | Gietz       |
| James       | Clark       |
| Michael     | Hartstein   |
+-------------+-------------+
79 rows in set (0.01 sec)

--------------
SELECT EMPLOYEE.first_name, EMPLOYEE.last_name
FROM EMPLOYEE
WHERE EMPLOYEE.employee_id IN 
	(SELECT JOBHISTORY.employee_id
	 FROM JOBHISTORY
	 GROUP BY employee_id
	 HAVING count(end_date) = 2)
--------------

+------------+-----------+
| first_name | last_name |
+------------+-----------+
| Neena      | Kochhar   |
| Jonathon   | Taylor    |
| Jennifer   | Whalen    |
+------------+-----------+
3 rows in set (0.00 sec)

--------------
SELECT DEPARTMENT.department_name, B.region_name
	FROM DEPARTMENT JOIN COUNTRY as B  
    		ON DEPARTMENT.country_name = B.country_name
		JOIN COUNTRY as A  
    		ON B.region_name = A.region_name
		GROUP BY DEPARTMENT.department_name, A.region_name
--------------

+------------------------+-----------------------+
| department_name        | region_name           |
+------------------------+-----------------------+
| Accounting             | Europe                |
| Administration         | Australia and Oceania |
| Benefits               | Asia                  |
| Construction           | Asia                  |
| Contracting            | Asia                  |
| Control And Credit     | Americas              |
| Corporate Tax          | Americas              |
| Executive              | Americas              |
| Finance                | Americas              |
| Government Sales       | Europe                |
| Human Resources        | Asia                  |
| Information Technology | Europe                |
| Manufacturing          | Asia                  |
| Marketing              | Asia                  |
| Operations             | Europe                |
| Payroll                | Australia and Oceania |
| Public Relations       | Europe                |
| Purchasing             | Asia                  |
| Recruiting             | Asia                  |
| Retail Sales           | Europe                |
| Sales                  | Europe                |
| Shareholder Services   | Americas              |
| Shipping               | Americas              |
| Treasury               | Asia                  |
+------------------------+-----------------------+
24 rows in set (0.00 sec)

--------------
SELECT DEPARTMENT.department_name
FROM DEPARTMENT
WHERE DEPARTMENT.country_name IN 
	(SELECT COUNTRY.country_name
	 FROM COUNTRY
	 WHERE region_name = 'Europe'
	)
--------------

+------------------------+
| department_name        |
+------------------------+
| Accounting             |
| Sales                  |
| Operations             |
| Government Sales       |
| Information Technology |
| Public Relations       |
| Retail Sales           |
+------------------------+
7 rows in set (0.01 sec)

mysql> notee;
