mysql> source solution1.sql;
--------------
create user brb405 identified by 'a'
--------------

Query OK, 0 rows affected (0.00 sec)

--------------
grant select on brb405.EMPLOYEE to brb405 with grant option
--------------

Query OK, 0 rows affected (0.00 sec)

--------------
grant select on brb405.JOBHISTORY to brb405 with grant option
--------------

Query OK, 0 rows affected (0.00 sec)

--------------
grant create view on brb405.* to brb405 with grant option
--------------

Query OK, 0 rows affected (0.00 sec)

--------------
ALTER USER brb405 WITH MAX_QUERIES_PER_HOUR 100 MAX_CONNECTIONS_PER_HOUR 10 MAX_USER_CONNECTIONS 3
--------------

Query OK, 0 rows affected (0.00 sec)

--------------
ALTER USER brb405 ACCOUNT LOCK
--------------

Query OK, 0 rows affected (0.00 sec)

--------------
SELECT mysql.user.user, mysql.tables_priv.Table_priv,mysql.tables_priv.Table_name, mysql.db.Create_view_priv, mysql.user.max_questions, mysql.user.max_connections, mysql.user.max_user_connections, mysql.user.account_locked
FROM mysql.user, mysql.db, mysql.tables_priv
WHERE mysql.user.user='brb405' AND (mysql.tables_priv.Table_name = 'EMPLOYEE' OR mysql.tables_priv.Table_name = 'JOBHISTORY')
--------------

+--------+--------------+------------+------------------+---------------+-----------------+----------------------+----------------+
| user   | Table_priv   | Table_name | Create_view_priv | max_questions | max_connections | max_user_connections | account_locked |
+--------+--------------+------------+------------------+---------------+-----------------+----------------------+----------------+
| brb405 | Select,Grant | JOBHISTORY | N                |           100 |              10 |                    3 | Y              |
| brb405 | Select,Grant | EMPLOYEE   | N                |           100 |              10 |                    3 | Y              |
| brb405 | Select,Grant | JOBHISTORY | Y                |           100 |              10 |                    3 | Y              |
| brb405 | Select,Grant | EMPLOYEE   | Y                |           100 |              10 |                    3 | Y              |
| brb405 | Select,Grant | JOBHISTORY | N                |           100 |              10 |                    3 | Y              |
| brb405 | Select,Grant | EMPLOYEE   | N                |           100 |              10 |                    3 | Y              |
| brb405 | Select,Grant | JOBHISTORY | Y                |           100 |              10 |                    3 | Y              |
| brb405 | Select,Grant | EMPLOYEE   | Y                |           100 |              10 |                    3 | Y              |
+--------+--------------+------------+------------------+---------------+-----------------+----------------------+----------------+
8 rows in set (0.00 sec)

mysql> notee;
