mysql> source solution4.sql;
--------------
SET GLOBAL general_log='ON'
--------------

Query OK, 0 rows affected (0.00 sec)

--------------
SET GLOBAL log_output='TABLE'
--------------

Query OK, 0 rows affected (0.00 sec)

--------------
TRUNCATE TABLE mysql.general_log
--------------

Query OK, 0 rows affected (0.01 sec)

--------------
SET GLOBAL general_log='OFF'
--------------

Query OK, 0 rows affected (0.01 sec)

--------------
select * from mysql.general_log where argument like '%CREATE %' or argument like '%ALTER %' or argument like '%DROP %'
--------------

+----------------------------+---------------------------+-----------+-----------+--------------+----------------------------------------------------------------------------------------+
| event_time                 | user_host                 | thread_id | server_id | command_type | argument                                                                               |
+----------------------------+---------------------------+-----------+-----------+--------------+----------------------------------------------------------------------------------------+
| 2017-06-03 17:49:55.286057 | root[root] @ localhost [] |         3 |         0 | Query        | CREATE TABLE MESSAGE( mbody VARCHAR(25), CONSTRAINT MESSAGE_PKEY PRIMARY KEY (mbody) ) |
| 2017-06-03 17:49:55.334201 | root[root] @ localhost [] |         3 |         0 | Query        | ALTER TABLE MESSAGE MODIFY mbody VARCHAR(50)                                           |
| 2017-06-03 17:49:55.622170 | root[root] @ localhost [] |         3 |         0 | Query        | DROP TABLE MESSAGE                                                                     |
+----------------------------+---------------------------+-----------+-----------+--------------+----------------------------------------------------------------------------------------+
3 rows in set (0.00 sec)

--------------
select argument, count(argument) as 'Count' from mysql.general_log where argument like '%SELECT %' or argument like '%INSERT %' or argument like '%UPDATE %' or argument like '%DELETE %'
GROUP BY argument
ORDER BY count(argument) ASC
--------------

+---------------------------------------------------------------------------------------------------------------------+-------+
| argument                                                                                                            | Count |
+---------------------------------------------------------------------------------------------------------------------+-------+
| UPDATE MESSAGE SET mbody = 'Hello myworld !!!' WHERE mbody LIKE 'Hello%'                                            |     1 |
| DELETE FROM JOBHISTORY WHERE employee_id < 150                                                                      |     1 |
| SELECT * FROM JOB                                                                                                   |     1 |
| SELECT employee_id, first_name, last_name
FROM EMPLOYEE
WHERE employee_id IN (SELECT supervisor_id 
	FROM EMPLOYEE) |     1 |
+---------------------------------------------------------------------------------------------------------------------+-------+
4 rows in set (0.00 sec)

